{
    "build_target": "amd64",
    "channel": "stable",
    "installations": [
        {
            "installation-paths": [
                {
                    "target-files": [
                        {
                            "sha256": "a950b18ce32ab937b07dff1ad74c44b0e23bdf51c85387540376374358f28f44",
                            "size": 1235222528,
                            "url": "http://dl.amnesia.boum.org/tails/stable/tails-amd64-3.13.1/tails-amd64-3.13.1.img"
                        }
                    ],
                    "type": "img"
                },
                {
                    "target-files": [
                        {
                            "sha256": "4e6b37c588f33b05c6a6909b0182bd31ca02a04e9d5fb6feb296b6e8d287e177",
                            "size": 1225568256,
                            "url": "http://dl.amnesia.boum.org/tails/stable/tails-amd64-3.13.1/tails-amd64-3.13.1.iso"
                        }
                    ],
                    "type": "iso"
                }
            ],
            "version": "3.13.1"
        }
    ],
    "product-name": "Tails"
}
